<svg xmlns="http://www.w3.org/2000/svg" width="1772.809" height="642.56" viewBox="0 0 1772.809 642.56">
  <defs>
    <style>
      .cls-1 {
        fill: #90f8ff;
        fill-rule: evenodd;
      }
    </style>
  </defs>
  <path id="Фигура_3_копия" data-name="Фигура 3 копия" class="cls-1" d="M1556.82,3397.22L324.038,3426.38c-81.21,1.92-151.873,50.13-175.048,119.44L80.574,3750.41c-22.585,67.54,4.907,140.36,68.706,181.98l56.625,36.95c28.751,18.76,62.932,29.83,98.532,31.9l653.9,38.13a210.6,210.6,0,0,0,47.465-2.61l643.4-109.34c69.59-11.82,125.82-57.52,145.35-118.12l43.76-135.78c21.54-66.82-5.7-138.46-68.38-179.84l-96.48-63.71C1639.8,3407.76,1598.73,3396.23,1556.82,3397.22Z" transform="translate(-72.781 -3397.16)"/>
</svg>
