<?xml version="1.0" encoding="UTF-8"?>
<svg width="1920px" height="156px" viewBox="0 0 1920 156" version="1.1" xmlns="http://www.w3.org/2000/svg" xmlns:xlink="http://www.w3.org/1999/xlink">
    <g id="Page-1" stroke="none" stroke-width="1" fill="none" fill-rule="evenodd">
        <g id="wave" transform="translate(0.000000, -1.000000)" fill="#008CE6">
            <g id="Page-1">
                <path d="M25,5 C92.6857457,0.656729468 161.046199,-0.173431678 229,3 C229.30814,2.60373817 754.736246,41.3888993 906,41 C1056.50016,41.3888993 1920,7.02624436 1920,7 L1920,157 L0,157 L0,7 L25,5 Z" id="wave"></path>
            </g>
        </g>
    </g>
</svg>