<?xml version="1.0" encoding="UTF-8"?>
<svg width="55px" height="63px" viewBox="0 0 55 63" version="1.1" xmlns="http://www.w3.org/2000/svg" xmlns:xlink="http://www.w3.org/1999/xlink">
    <!-- Generator: Sketch 3.7 (28169) - http://www.bohemiancoding.com/sketch -->
    <title>Group</title>
    <desc>Created with Sketch.</desc>
    <defs></defs>
    <g id="Page-1" stroke="none" stroke-width="1" fill="none" fill-rule="evenodd">
        <g id="noun_531762_cc---people" fill="#FFFFFF">
            <g id="Group">
                <path d="M45.9,39.7 L37.1,36.5 C37.1,36.5 34.4,35.7 33.6,33.9 C37.6,30.4 40.2,24.1 40.5,19.3 C41.7,18.9 42.5,17.8 42.5,16.5 C42.5,15.4 41.8,14.5 41.4,14.1 C41.3,9.6 39,6.4 34.7,4.7 C33.2,2.1 30.5,0.5 27.5,0.5 C24.5,0.5 21.7,2.1 20.3,4.7 C16.1,6.4 13.8,9.6 13.6,14.1 C13.2,14.6 12.5,15.4 12.5,16.5 C12.5,17.7 13.6,18.6 14.5,19.1 C14.7,24 17.4,30.5 21.4,34 C21,35 19.3,36.3 18,36.6 L9.1,39.8 C4,41.5 0.5,46.5 0.5,51.9 L0.5,62.5 L54.5,62.5 L54.5,51.9 C54.5,46.5 51,41.5 45.9,39.7 L45.9,39.7 Z M44.5,60.5 L10.5,60.5 L10.5,53.5 L44.5,53.5 L44.5,60.5 L44.5,60.5 Z M13.5,40.3 L15.5,39.6 L15.5,51.5 L13.5,51.5 L13.5,40.3 L13.5,40.3 Z M39.5,51.5 L39.5,39.5 L41.5,40.2 L41.5,51.4 L39.5,51.4 L39.5,51.5 Z M15.6,15 C15.4,7.6 21.7,6.4 21.7,6.4 C21.7,6.4 23.3,2.6 27.5,2.6 C31.8,2.6 33.3,6.4 33.3,6.4 C33.3,6.4 39.8,8 39.4,15 C39.4,15 40.5,15.8 40.5,16.5 C40.5,17.1 40,17.5 39.3,17.5 L39.2,17.5 C39,17.5 23.5,19.4 15.9,17.5 C15.2,17.2 14.5,16.7 14.4,16.5 C14.5,15.7 15.6,15 15.6,15 L15.6,15 Z M16.6,19.7 C19.1,20.2 22.2,20.4 25.3,20.4 C30.8,20.4 36.2,19.9 38.5,19.6 C38,25.8 33.2,34.5 27.5,34.5 C21.9,34.5 17.1,25.9 16.6,19.7 L16.6,19.7 Z M27.5,36.5 C29.1,36.5 30.6,36 32,35.1 C32.5,35.9 33.2,36.6 34,37.2 L32,39.5 L23,39.5 L21,37.3 C21.8,36.7 22.5,36 23,35.2 C24.4,36 25.9,36.5 27.5,36.5 L27.5,36.5 Z M19.2,38.2 L22,41.5 L33,41.5 L35.8,38.2 C36,38.3 37.5,38.8 37.5,38.8 L37.5,51.5 L17.5,51.5 L17.5,38.8 C17.5,38.8 19,38.3 19.2,38.2 L19.2,38.2 Z M2.5,51.9 C2.5,47.3 5.4,43.1 9.8,41.5 L11.5,40.9 L11.5,51.4 L8.5,51.4 L8.5,60.4 L2.5,60.4 L2.5,51.9 L2.5,51.9 Z M52.5,60.5 L46.5,60.5 L46.5,51.5 L43.5,51.5 L43.5,41 L45.2,41.6 C49.6,43.2 52.5,47.3 52.5,52 L52.5,60.5 L52.5,60.5 Z" id="Shape"></path>
                <rect id="Rectangle-path" x="14.5" y="56.5" width="4" height="2"></rect>
                <rect id="Rectangle-path" x="36.5" y="56.5" width="4" height="2"></rect>
            </g>
        </g>
    </g>
</svg>