<?xml version="1.0" encoding="utf-8"?>
<!-- Generator: Adobe Illustrator 21.1.0, SVG Export Plug-In . SVG Version: 6.00 Build 0)  -->
<svg version="1.1" id="Слой_1" xmlns="http://www.w3.org/2000/svg" xmlns:xlink="http://www.w3.org/1999/xlink" x="0px" y="0px"
	 viewBox="0 0 218 205" style="enable-background:new 0 0 218 205;" xml:space="preserve">
<style type="text/css">
	.st0{fill:#42E87D;}
</style>
<title>spisok</title>
<desc>Created with Sketch.</desc>
<g id="Page-1">
	<g id="spisok">
		<g id="check-list">
			<path id="Fill-46" class="st0" d="M62.9,98H26.4V60.3h22.9c1.7,0,3,1.3,3,3c0,1.7-1.3,3-3,3H32.4V92h24.6v-6.3c0-1.7,1.3-3,3-3
				c1.7,0,3,1.3,3,3V98L62.9,98z"/>
			<path id="Fill-47" class="st0" d="M47.6,88.9L34.8,77.7c-1.3-1.1-1.4-3-0.3-4.2c1.1-1.2,3-1.4,4.2-0.3l8.5,7.4l17.6-18.8
				c1.1-1.2,3-1.3,4.2-0.1c1.2,1.1,1.3,3,0.1,4.2L47.6,88.9L47.6,88.9z"/>
			<path id="Fill-48" class="st0" d="M62.9,145.5H26.4v-37.7h22.9c1.7,0,3,1.3,3,3c0,1.7-1.3,3-3,3H32.4v25.7h24.6v-6.3
				c0-1.7,1.3-3,3-3c1.7,0,3,1.3,3,3V145.5L62.9,145.5z"/>
			<path id="Fill-49" class="st0" d="M47.6,136.4l-12.9-11.2c-1.3-1.1-1.4-3-0.3-4.2c1.1-1.2,3-1.4,4.2-0.3l8.5,7.4l17.6-18.8
				c1.1-1.2,3-1.3,4.2-0.1c1.2,1.1,1.3,3,0.1,4.2L47.6,136.4L47.6,136.4z"/>
			<path id="Fill-50" class="st0" d="M26.4,152.5v38.1h38.1v-38.1H26.4z M58.5,184.7H32.4v-26.1h26.1V184.7z"/>
			<path id="Fill-51" class="st0" d="M89.9,127.9H77.2c-1.7,0-3-1.3-3-3c0-1.7,1.3-3,3-3h12.7c1.7,0,3,1.3,3,3
				C92.9,126.5,91.5,127.9,89.9,127.9L89.9,127.9z"/>
			<path id="Fill-52" class="st0" d="M123.5,95.2H77.2c-1.7,0-3-1.3-3-3c0-1.7,1.3-3,3-3h46.4c1.7,0,3,1.3,3,3
				C126.5,93.9,125.2,95.2,123.5,95.2L123.5,95.2z"/>
			<path id="Fill-53" class="st0" d="M107,111.5H77.2c-1.7,0-3-1.3-3-3c0-1.7,1.3-3,3-3H107c1.7,0,3,1.3,3,3
				C110,110.2,108.6,111.5,107,111.5L107,111.5z"/>
			<path id="Fill-54" class="st0" d="M107,78.9H77.2c-1.7,0-3-1.3-3-3c0-1.7,1.3-3,3-3H107c1.7,0,3,1.3,3,3
				C110,77.5,108.6,78.9,107,78.9L107,78.9z"/>
			<path class="st0" d="M182.9,47.4l-10.3,10.4V24.5h-0.1C171.4,11,160,0.3,146.2,0.3H26.6C11.9,0.3,0,12.2,0,26.9
				c0,9.5,5.1,18.2,13.2,22.9V205h125.6v-22.9h33.8v-54.8l45-45.7L182.9,47.4z M146.2,6.3c11.3,0,20.5,9.2,20.5,20.5V64l-27.8,28.3
				V45.5c-7.7-3.3-13.2-10.5-13.2-18.7C125.6,15.5,134.8,6.3,146.2,6.3z M6,26.9C6,15.5,15.2,6.3,26.6,6.3h102.8
				c-5.9,4.9-9.7,12.3-9.7,20.5c0,7.1,2.8,13.8,7.7,18.7H18.1C10.8,42.2,6,34.9,6,26.9z M132.9,199H19.3V51.5h113.6v46.8l-41.3,42
				L83.9,184l42.5-9.5l6.5-6.7V199z M93.7,162.6l2.9-16.6l24,23.5l-16.1,3.6L93.7,162.6z M97.5,174.7l-6.2,1.4l1.1-6.3L97.5,174.7z
				 M166.7,176.1h-27.8v-14.4l27.8-28.3V176.1z M125.8,166.4l-26.2-25.8L183,55.9l26.2,25.8L125.8,166.4z"/>
		</g>
	</g>
</g>
</svg>
