<?xml version="1.0" encoding="UTF-8" standalone="no"?>
<svg width="38px" height="22px" viewBox="0 0 38 22" version="1.1" xmlns="http://www.w3.org/2000/svg" xmlns:xlink="http://www.w3.org/1999/xlink">
    <!-- Generator: Sketch 3.7.2 (28276) - http://www.bohemiancoding.com/sketch -->
    <title>vk-social-network-logo</title>
    <desc>Created with Sketch.</desc>
    <defs></defs>
    <g id="Page-1" stroke="none" stroke-width="1" fill="none" fill-rule="evenodd">
        <g id="vk-social-network-logo" fill="#000000">
            <path d="M37.7543497,19.608969 C37.7083898,19.5099199 37.6655446,19.4277596 37.625745,19.3619344 C36.9672168,18.1759053 35.7087869,16.7201384 33.8512168,14.9942186 L33.8119709,14.9546958 L33.7923133,14.9353151 L33.7724481,14.9154499 L33.7525137,14.9154499 C32.9094536,14.1117741 32.3755847,13.5713989 32.1520146,13.2947395 C31.7429435,12.7677231 31.6513005,12.2342696 31.8748707,11.6937559 C32.0328233,11.285377 32.6261494,10.4229362 33.6534645,9.10525683 C34.1938397,8.40692896 34.6218069,7.84724226 34.9378506,7.42557377 C37.2172277,4.39526412 38.2054353,2.4588561 37.9022659,1.61558834 L37.7845282,1.41852823 C37.7054135,1.29989071 37.501224,1.19135883 37.1722368,1.09237887 C36.8424882,0.993606557 36.4210273,0.977271403 35.9070929,1.04309654 L30.2158142,1.08241166 C30.1236175,1.04974135 29.9919672,1.05278689 29.8204481,1.09237887 C29.6491366,1.13197086 29.5634463,1.15183607 29.5634463,1.15183607 L29.4643971,1.20132605 L29.3857668,1.26078324 C29.3198725,1.30009836 29.2474026,1.3692459 29.1682878,1.46808743 C29.0895883,1.56658288 29.0237632,1.68217486 28.9711585,1.81389435 C28.3515301,3.4080255 27.6470419,4.89016393 26.8563789,6.26024044 C26.3688852,7.07720583 25.9211913,7.78522404 25.5123279,8.38471038 C25.1040182,8.98398907 24.7614645,9.42552277 24.4850128,9.70855009 C24.2081457,9.99185428 23.9582732,10.218816 23.7338725,10.3902659 C23.5098179,10.5617851 23.3387832,10.634255 23.2203534,10.607745 C23.1016466,10.581235 22.9898616,10.5549326 22.8840291,10.5286302 C22.6997049,10.4099927 22.5514426,10.2486485 22.4396576,10.044459 C22.327388,9.84026958 22.2518033,9.58326776 22.2122805,9.2736612 C22.1729654,8.96384699 22.1497086,8.69736248 22.1430638,8.47330783 C22.1369035,8.24953005 22.1397413,7.93300182 22.1531002,7.52462295 C22.1668051,7.11603643 22.1729654,6.8395847 22.1729654,6.69464481 C22.1729654,6.19393078 22.182725,5.65051002 22.2023133,5.06424408 C22.2222477,4.47797814 22.2383752,4.01346448 22.2518725,3.67125683 C22.2653005,3.3287031 22.2715301,2.96628415 22.2715301,2.58420765 C22.2715301,2.20213115 22.2482732,1.9024918 22.2023133,1.68501275 C22.1569071,1.46781056 22.0872058,1.25697632 21.9953552,1.05257923 C21.9029508,0.8483898 21.7677013,0.690437158 21.5902295,0.578306011 C21.4124117,0.466313297 21.1913333,0.37743898 20.9282404,0.311406193 C20.2299126,0.153384335 19.3406849,0.0679016393 18.2601421,0.0546120219 C15.8097996,0.0283096539 14.235326,0.186539162 13.5370674,0.529092896 C13.260408,0.673825137 13.010051,0.871577413 12.786204,1.12172678 C12.5489982,1.41167577 12.5159126,1.56990528 12.6871548,1.59593078 C13.4777486,1.71436066 14.0374353,1.99766485 14.3668379,2.44556648 L14.4855446,2.68291075 C14.5778798,2.85415301 14.6700765,3.1573224 14.7623424,3.59200364 C14.8544699,4.02668488 14.9139271,4.5075337 14.9400911,5.03427322 C15.005847,5.99617851 15.005847,6.81958106 14.9400911,7.50455009 C14.8741275,8.18979599 14.8118324,8.72324954 14.7523752,9.10532605 C14.692918,9.48740255 14.6040437,9.79700911 14.4855446,10.0340765 C14.3668379,10.2712131 14.2878616,10.416153 14.2482696,10.4687577 C14.2087468,10.5213625 14.1757996,10.5545173 14.1496357,10.5675301 C13.9783934,10.6331475 13.8002987,10.6665792 13.6159745,10.6665792 C13.4313734,10.6665792 13.2075264,10.5742441 12.9440874,10.3897122 C12.6807177,10.2051803 12.4073807,9.95170856 12.1240765,9.6288816 C11.8407723,9.30598543 11.5212678,8.85476138 11.1654244,8.27514026 C10.8098579,7.69551913 10.4409326,7.01048087 10.0588561,6.2200255 L9.74274317,5.64677231 C9.54512933,5.27798543 9.27518397,4.74100182 8.93263024,4.03630601 C8.58986885,3.33133333 8.2869071,2.64940984 8.02353734,1.99067395 C7.91825865,1.71401457 7.76009836,1.50338798 7.54933333,1.35844809 L7.45042259,1.29899089 C7.38466667,1.24638616 7.27911111,1.19052823 7.13430965,1.13100182 C6.98930055,1.07154463 6.83799271,1.0289071 6.67976321,1.00267395 L1.26500546,1.04198907 C0.711686703,1.04198907 0.336255009,1.16734062 0.138571949,1.41769763 L0.0594571949,1.5361275 C0.0199344262,1.60209107 0,1.70743898 0,1.85244809 C0,1.99738798 0.0395227687,2.17527505 0.118637523,2.38590164 C0.909092896,4.24367942 1.76869581,6.03535519 2.69744627,7.76120583 C3.62619672,9.48705647 4.43326412,10.877275 5.11816393,11.9306157 C5.80320219,12.9847177 6.50146084,13.9795701 7.21293989,14.9146885 C7.92441894,15.850153 8.39536976,16.4496393 8.62579235,16.7130091 C8.8564918,16.9768634 9.03770128,17.1741311 9.16942077,17.3058506 L9.6635592,17.7800546 C9.97974135,18.096306 10.4440474,18.4750601 11.0566849,18.9163169 C11.6694608,19.3578506 12.3478543,19.7925319 13.0922113,20.2210528 C13.8367067,20.6488816 14.702816,20.9980109 15.6910237,21.2680255 C16.6790929,21.5383169 17.6407905,21.6467796 18.576255,21.5944517 L20.848918,21.5944517 C21.3098324,21.5546521 21.659031,21.4097122 21.8963752,21.1595628 L21.9750055,21.0605137 C22.0278871,20.9818834 22.077377,20.8597158 22.1230601,20.695326 C22.1692969,20.5306594 22.1922769,20.3492423 22.1922769,20.1519053 C22.1787796,19.5855046 22.2219016,19.075031 22.3204663,18.6205537 C22.4189617,18.1662149 22.5312313,17.8236612 22.6567905,17.5929617 C22.7822805,17.3624699 22.923898,17.1679709 23.0815046,17.0102951 C23.2394572,16.8522732 23.3520036,16.7565464 23.4180364,16.7235993 C23.4836539,16.6904444 23.536051,16.667949 23.5755738,16.6544517 C23.8917559,16.5491038 24.2638652,16.6511293 24.6924554,16.9610128 C25.1206995,17.2706193 25.5223643,17.6529035 25.8980729,18.1072423 C26.2735738,18.5619964 26.7247286,19.0721931 27.2516066,19.6385938 C27.7788306,20.2052022 28.2398142,20.6263862 28.6349035,20.9034608 L29.0299927,21.1405974 C29.293847,21.298827 29.6364007,21.4437668 30.0580692,21.5754863 C30.4789763,21.7071366 30.8477632,21.7400838 31.1644299,21.6742587 L36.223275,21.5953515 C36.723643,21.5953515 37.1129872,21.5124991 37.3891621,21.3481093 C37.6658907,21.1834426 37.8302805,21.0020255 37.8833005,20.8046885 C37.9361821,20.6071439 37.93902,20.38302 37.893337,20.1324554 C37.8464772,19.8825137 37.8003097,19.7077413 37.7543497,19.608969 L37.7543497,19.608969 Z" id="Shape"></path>
        </g>
    </g>
</svg>